[gd_scene load_steps=6 format=2]

[ext_resource path="res://Scenes/Player.tscn" type="PackedScene" id=1]
[ext_resource path="res://Assets/Tileset/StoneWorld.tres" type="TileSet" id=2]
[ext_resource path="res://Assets/Familiar Looking Rocket.png" type="Texture" id=3]
[ext_resource path="res://Scenes/Area Trigger.tscn" type="PackedScene" id=4]
[ext_resource path="res://Scenes/Spawner.tscn" type="PackedScene" id=5]

[node name="Level 1" type="Node2D"]

[node name="Player" parent="." instance=ExtResource( 1 )]
position = Vector2( 135.152, 106.001 )

[node name="TileMap" type="TileMap" parent="."]
scale = Vector2( 0.5, 0.5 )
tile_set = ExtResource( 2 )
cell_size = Vector2( 128, 128 )
format = 1
tile_data = PoolIntArray( 327681, 0, 3, 327682, 0, 65543, 327683, 0, 65543, 327684, 0, 65543, 327685, 0, 65543, 327686, 0, 4, 327690, 0, 3, 327691, 0, 65543, 327692, 0, 65543, 327693, 0, 65543, 327694, 0, 65543, 327695, 0, 0, 327696, 0, 0, 327697, 0, 65543, 327698, 0, 65543, 327699, 0, 65543, 327700, 0, 65543, 327701, 0, 0, 327702, 0, 0, 327703, 0, 65543, 327704, 0, 65543, 327705, 0, 65543, 327706, 0, 65543, 327707, 0, 4, 327711, 0, 3, 327712, 0, 65543, 327713, 0, 65543, 327714, 0, 65543, 327715, 0, 65543, 327716, 0, 4, 393218, 0, 1, 393219, 0, 1, 393220, 0, 1, 393221, 0, 1, 393227, 0, 1, 393228, 0, 1, 393229, 0, 1, 393230, 0, 1, 393231, 0, 1, 393232, 0, 1, 393233, 0, 1, 393234, 0, 1, 393235, 0, 1, 393236, 0, 1, 393237, 0, 1, 393238, 0, 1, 393239, 0, 1, 393240, 0, 1, 393241, 0, 1, 393242, 0, 1, 393248, 0, 1, 393249, 0, 1, 393250, 0, 1, 393251, 0, 1, 458754, 0, 1, 458755, 0, 1, 458756, 0, 1, 458757, 0, 1, 458763, 0, 1, 458764, 0, 1, 458765, 0, 1, 458766, 0, 1, 458767, 0, 1, 458768, 0, 1, 458769, 0, 1, 458770, 0, 1, 458771, 0, 1, 458772, 0, 1, 458773, 0, 1, 458774, 0, 1, 458775, 0, 1, 458776, 0, 1, 458777, 0, 1, 458778, 0, 1, 458784, 0, 1, 458785, 0, 1, 458786, 0, 1, 458787, 0, 1, 524290, 0, 1, 524291, 0, 1, 524292, 0, 1, 524293, 0, 1, 524299, 0, 1, 524300, 0, 1, 524301, 0, 1, 524302, 0, 1, 524303, 0, 1, 524304, 0, 1, 524305, 0, 1, 524306, 0, 1, 524307, 0, 1, 524308, 0, 1, 524309, 0, 1, 524310, 0, 1, 524311, 0, 1, 524312, 0, 1, 524313, 0, 1, 524314, 0, 1, 524320, 0, 1, 524321, 0, 1, 524322, 0, 1, 524323, 0, 1, 589826, 0, 1, 589827, 0, 1, 589828, 0, 1, 589829, 0, 1, 589835, 0, 1, 589836, 0, 1, 589837, 0, 1, 589838, 0, 1, 589839, 0, 1, 589840, 0, 1, 589841, 0, 1, 589842, 0, 1, 589843, 0, 1, 589844, 0, 1, 589845, 0, 1, 589846, 0, 1, 589847, 0, 1, 589848, 0, 1, 589849, 0, 1, 589850, 0, 1, 589856, 0, 1, 589857, 0, 1, 589858, 0, 1, 589859, 0, 1, 655362, 0, 1, 655363, 0, 1, 655364, 0, 1, 655365, 0, 1, 655371, 0, 1, 655372, 0, 1, 655373, 0, 1, 655374, 0, 1, 655375, 0, 1, 655376, 0, 1, 655377, 0, 1, 655378, 0, 1, 655379, 0, 1, 655380, 0, 1, 655381, 0, 1, 655382, 0, 1, 655383, 0, 1, 655384, 0, 1, 655385, 0, 1, 655386, 0, 1, 655392, 0, 1, 655393, 0, 1, 655394, 0, 1, 655395, 0, 1 )

[node name="Sprite" type="Sprite" parent="."]
position = Vector2( 2170.27, 73.2836 )
texture = ExtResource( 3 )

[node name="Area Trigger" parent="Sprite" instance=ExtResource( 4 )]
scale = Vector2( 0.6, 0.9 )
sceneName = "Win Screen"

[node name="Area Trigger" parent="." instance=ExtResource( 4 )]
position = Vector2( 892.925, 781.593 )
scale = Vector2( 22.6674, 0.033058 )

[node name="Spawner" parent="." instance=ExtResource( 5 )]
position = Vector2( 1700, 280 )
spawn_rate = 1.0
